%!PS-Adobe-3.0 EPSF-3.0
%%Creator: MATLAB, The MathWorks, Inc. Version 8.0.0.783 (R2012b). Operating System: Microsoft Windows 7.
%%Title: C:\Users\easone\Desktop\papers\BBGeckoSensor\figure_creation\temp\untitled.eps
%%CreationDate: 09/29/2014  13:26:30
%%DocumentNeededFonts: Helvetica
%%DocumentProcessColors: Cyan Magenta Yellow Black
%%LanguageLevel: 2
%%Pages: 1
%%BoundingBox:    95   238   515   553
%%EndComments

%%BeginProlog
% MathWorks dictionary
/MathWorks 160 dict begin
% definition operators
/bdef {bind def} bind def
/ldef {load def} bind def
/xdef {exch def} bdef
/xstore {exch store} bdef
% operator abbreviations
/c  /clip ldef
/cc /concat ldef
/cp /closepath ldef
/gr /grestore ldef
/gs /gsave ldef
/mt /moveto ldef
/np /newpath ldef
/cm /currentmatrix ldef
/sm /setmatrix ldef
/rm /rmoveto ldef
/rl /rlineto ldef
/s {show newpath} bdef
/sc {setcmykcolor} bdef
/sr /setrgbcolor ldef
/sg /setgray ldef
/w /setlinewidth ldef
/j /setlinejoin ldef
/cap /setlinecap ldef
/rc {rectclip} bdef
/rf {rectfill} bdef
% page state control
/pgsv () def
/bpage {/pgsv save def} bdef
/epage {pgsv restore} bdef
/bplot /gsave ldef
/eplot {stroke grestore} bdef
% orientation switch
/portraitMode 0 def /landscapeMode 1 def /rotateMode 2 def
% coordinate system mappings
/dpi2point 0 def
% font control
/FontSize 0 def
/FMS {/FontSize xstore findfont [FontSize 0 0 FontSize neg 0 0]
  makefont setfont} bdef
/ISOLatin1Encoding where {pop /WindowsLatin1Encoding 256 array bdef
ISOLatin1Encoding WindowsLatin1Encoding copy pop
/.notdef/.notdef/quotesinglbase/florin/quotedblbase/ellipsis/dagger
/daggerdbl/circumflex/perthousand/Scaron/guilsinglleft/OE/.notdef/.notdef
/.notdef/.notdef/quoteleft/quoteright/quotedblleft/quotedblright/bullet
/endash/emdash/tilde/trademark/scaron/guilsinglright/oe/.notdef/.notdef
/Ydieresis WindowsLatin1Encoding 128 32 getinterval astore pop}
{/WindowsLatin1Encoding StandardEncoding bdef} ifelse
/reencode {exch dup where {pop load} {pop StandardEncoding} ifelse
  exch dup 3 1 roll findfont dup length dict begin
  { 1 index /FID ne {def}{pop pop} ifelse } forall
  /Encoding exch def currentdict end definefont pop} bdef
/isroman {findfont /CharStrings get /Agrave known} bdef
/FMSR {3 1 roll 1 index dup isroman {reencode} {pop pop} ifelse
  exch FMS} bdef
/csm {1 dpi2point div -1 dpi2point div scale neg translate
 dup landscapeMode eq {pop -90 rotate}
  {rotateMode eq {90 rotate} if} ifelse} bdef
% line types: solid, dotted, dashed, dotdash
/SO { [] 0 setdash } bdef
/DO { [.5 dpi2point mul 4 dpi2point mul] 0 setdash } bdef
/DA { [6 dpi2point mul] 0 setdash } bdef
/DD { [.5 dpi2point mul 4 dpi2point mul 6 dpi2point mul 4
  dpi2point mul] 0 setdash } bdef
% macros for lines and objects
/L {lineto stroke} bdef
/MP {3 1 roll moveto 1 sub {rlineto} repeat} bdef
/AP {{rlineto} repeat} bdef
/PDlw -1 def
/W {/PDlw currentlinewidth def setlinewidth} def
/PP {closepath eofill} bdef
/DP {closepath stroke} bdef
/MR {4 -2 roll moveto dup  0 exch rlineto exch 0 rlineto
  neg 0 exch rlineto closepath} bdef
/FR {MR stroke} bdef
/PR {MR fill} bdef
/L1i {{currentfile picstr readhexstring pop} image} bdef
/tMatrix matrix def
/MakeOval {newpath tMatrix currentmatrix pop translate scale
0 0 1 0 360 arc tMatrix setmatrix} bdef
/FO {MakeOval stroke} bdef
/PO {MakeOval fill} bdef
/PD {currentlinewidth 2 div 0 360 arc fill
   PDlw -1 eq not {PDlw w /PDlw -1 def} if} def
/FA {newpath tMatrix currentmatrix pop translate scale
  0 0 1 5 -2 roll arc tMatrix setmatrix stroke} bdef
/PA {newpath tMatrix currentmatrix pop	translate 0 0 moveto scale
  0 0 1 5 -2 roll arc closepath tMatrix setmatrix fill} bdef
/FAn {newpath tMatrix currentmatrix pop translate scale
  0 0 1 5 -2 roll arcn tMatrix setmatrix stroke} bdef
/PAn {newpath tMatrix currentmatrix pop translate 0 0 moveto scale
  0 0 1 5 -2 roll arcn closepath tMatrix setmatrix fill} bdef
/vradius 0 def /hradius 0 def /lry 0 def
/lrx 0 def /uly 0 def /ulx 0 def /rad 0 def
/MRR {/vradius xdef /hradius xdef /lry xdef /lrx xdef /uly xdef
  /ulx xdef newpath tMatrix currentmatrix pop ulx hradius add uly
  vradius add translate hradius vradius scale 0 0 1 180 270 arc 
  tMatrix setmatrix lrx hradius sub uly vradius add translate
  hradius vradius scale 0 0 1 270 360 arc tMatrix setmatrix
  lrx hradius sub lry vradius sub translate hradius vradius scale
  0 0 1 0 90 arc tMatrix setmatrix ulx hradius add lry vradius sub
  translate hradius vradius scale 0 0 1 90 180 arc tMatrix setmatrix
  closepath} bdef
/FRR {MRR stroke } bdef
/PRR {MRR fill } bdef
/MlrRR {/lry xdef /lrx xdef /uly xdef /ulx xdef /rad lry uly sub 2 div def
  newpath tMatrix currentmatrix pop ulx rad add uly rad add translate
  rad rad scale 0 0 1 90 270 arc tMatrix setmatrix lrx rad sub lry rad
  sub translate rad rad scale 0 0 1 270 90 arc tMatrix setmatrix
  closepath} bdef
/FlrRR {MlrRR stroke } bdef
/PlrRR {MlrRR fill } bdef
/MtbRR {/lry xdef /lrx xdef /uly xdef /ulx xdef /rad lrx ulx sub 2 div def
  newpath tMatrix currentmatrix pop ulx rad add uly rad add translate
  rad rad scale 0 0 1 180 360 arc tMatrix setmatrix lrx rad sub lry rad
  sub translate rad rad scale 0 0 1 0 180 arc tMatrix setmatrix
  closepath} bdef
/FtbRR {MtbRR stroke } bdef
/PtbRR {MtbRR fill } bdef
/stri 6 array def /dtri 6 array def
/smat 6 array def /dmat 6 array def
/tmat1 6 array def /tmat2 6 array def /dif 3 array def
/asub {/ind2 exch def /ind1 exch def dup dup
  ind1 get exch ind2 get sub exch } bdef
/tri_to_matrix {
  2 0 asub 3 1 asub 4 0 asub 5 1 asub
  dup 0 get exch 1 get 7 -1 roll astore } bdef
/compute_transform {
  dmat dtri tri_to_matrix tmat1 invertmatrix 
  smat stri tri_to_matrix tmat2 concatmatrix } bdef
/ds {stri astore pop} bdef
/dt {dtri astore pop} bdef
/db {2 copy /cols xdef /rows xdef mul dup 3 mul string
  currentfile 
  3 index 0 eq {/ASCIIHexDecode filter}
  {/ASCII85Decode filter 3 index 2 eq {/RunLengthDecode filter} if }
  ifelse exch readstring pop
  dup 0 3 index getinterval /rbmap xdef
  dup 2 index dup getinterval /gbmap xdef
  1 index dup 2 mul exch getinterval /bbmap xdef pop pop}bdef
/it {gs np dtri aload pop moveto lineto lineto cp c
  cols rows 8 compute_transform 
  rbmap gbmap bbmap true 3 colorimage gr}bdef
/il {newpath moveto lineto stroke}bdef
currentdict end def
%%EndProlog

%%BeginSetup
MathWorks begin

0 cap

end
%%EndSetup

%%Page: 1 1
%%BeginPageSetup
%%PageBoundingBox:    95   238   515   553
MathWorks begin
bpage
%%EndPageSetup

%%BeginObject: obj1
bplot

/dpi2point 12 def
portraitMode 1140 6636 csm

    0     0  5049  3780 rc
89 dict begin %Colortable dictionary
/c0 { 0.000000 0.000000 0.000000 sr} bdef
/c1 { 1.000000 1.000000 1.000000 sr} bdef
/c2 { 0.900000 0.000000 0.000000 sr} bdef
/c3 { 0.000000 0.820000 0.000000 sr} bdef
/c4 { 0.000000 0.000000 0.800000 sr} bdef
/c5 { 0.910000 0.820000 0.320000 sr} bdef
/c6 { 1.000000 0.260000 0.820000 sr} bdef
/c7 { 0.000000 0.820000 0.820000 sr} bdef
c0
1 j
1 sg
   0    0 5050 3781 rf
6 w
0 3081 3913 0 0 -3081 656 3364 4 MP
PP
-3913 0 0 3081 3913 0 0 -3081 656 3364 5 MP stroke
4 w
DO
SO
6 w
0 sg
 656  283 mt 4569  283 L
 656 3364 mt 4569 3364 L
4569 3364 mt 4569  283 L
 656 3364 mt  656  283 L
 656 3364 mt 4569 3364 L
 656 3364 mt  656  283 L
 656 3364 mt  656 3324 L
 656  283 mt  656  322 L
%%IncludeResource: font Helvetica
/Helvetica /WindowsLatin1Encoding 120 FMSR

 553 3509 mt 
(-2) s
1145 3364 mt 1145 3324 L
1145  283 mt 1145  322 L
 992 3509 mt 
(-1.5) s
1634 3364 mt 1634 3324 L
1634  283 mt 1634  322 L
1531 3509 mt 
(-1) s
2123 3364 mt 2123 3324 L
2123  283 mt 2123  322 L
1970 3509 mt 
(-0.5) s
2612 3364 mt 2612 3324 L
2612  283 mt 2612  322 L
2579 3509 mt 
(0) s
3101 3364 mt 3101 3324 L
3101  283 mt 3101  322 L
3018 3509 mt 
(0.5) s
3590 3364 mt 3590 3324 L
3590  283 mt 3590  322 L
3557 3509 mt 
(1) s
4079 3364 mt 4079 3324 L
4079  283 mt 4079  322 L
3996 3509 mt 
(1.5) s
4569 3364 mt 4569 3324 L
4569  283 mt 4569  322 L
4536 3509 mt 
(2) s
 656 3364 mt  695 3364 L
4569 3364 mt 4529 3364 L
 418 3408 mt 
(-60) s
 656 2978 mt  695 2978 L
4569 2978 mt 4529 2978 L
 418 3022 mt 
(-40) s
 656 2593 mt  695 2593 L
4569 2593 mt 4529 2593 L
 418 2637 mt 
(-20) s
 656 2208 mt  695 2208 L
4569 2208 mt 4529 2208 L
 555 2252 mt 
(0) s
 656 1823 mt  695 1823 L
4569 1823 mt 4529 1823 L
 488 1867 mt 
(20) s
 656 1438 mt  695 1438 L
4569 1438 mt 4529 1438 L
 488 1482 mt 
(40) s
 656 1053 mt  695 1053 L
4569 1053 mt 4529 1053 L
 488 1097 mt 
(60) s
 656  668 mt  695  668 L
4569  668 mt 4529  668 L
 488  712 mt 
(80) s
 656  283 mt  695  283 L
4569  283 mt 4529  283 L
 421  327 mt 
(100) s
 656  283 mt 4569  283 L
 656 3364 mt 4569 3364 L
4569 3364 mt 4569  283 L
 656 3364 mt  656  283 L
gs 656 283 3914 3082 rc
/c8 { 0.500000 0.000000 0.000000 sr} bdef
c8
5 -1 4 -1 5 -2 5 2 4 0 5 1 5 0 4 0 
5 0 5 0 4 0 5 -1 5 0 4 0 5 0 5 1 
4 2 5 5 5 0 4 1 5 -1 5 2 4 0 5 0 
5 -2 4 0 5 -1 5 -2 4 0 5 3 5 0 4 0 
5 0 5 0 4 -1 5 0 5 0 4 0 5 -1 5 0 
4 -2 5 0 5 -2 4 0 5 0 5 -2 4 2 5 -1 
5 0 4 0 5 0 5 0 4 -1 5 1 5 0 4 -1 
5 -2 5 2 4 0 5 -2 5 0 4 -2 5 0 5 -4 
4 -3 5 -2 5 1 4 -7 5 0 5 0 4 0 5 1 
5 0 4 0 5 -5 5 0 4 -13 5 -12 5 0 4 -5 
5 -3 5 -6 4 -2 5 -1 5 0 4 0 5 -12 5 -7 
4 -21 5 -2 5 -14 4 -10 5 -13 5 0 4 -9 5 -6 
5 0 4 0 5 -25 5 -19 4 -8 5 0 5 0 4 -18 
5 -9 5 0 4 -20 5 -10 5 -16 4 -19 5 -17 5 -10 
4 0 5 -8 5 0 4 0 5 0 5 0 4 -4 5 -7 
5 -20 4 -10 5 -1 5 -2 4 -9 5 0 5 -3 4 0 
5 0 5 0 4 -8 5 3 5 3 4 0 5 3 5 -3 
4 1 5 4 5 2 4 0 5 7 5 24 4 4 5 17 
5 10 4 29 5 0 5 0 4 0 5 13 5 12 4 18 
5 23 5 13 4 0 5 0 5 16 4 15 5 49 5 0 
4 0 5 16 5 43 4 10 5 10 5 54 4 0 5 0 
5 0 4 24 5 0 5 0 4 0 5 15 5 46 4 0 
5 0 5 0 4 30 5 0 5 13 4 56 5 5 5 75 
4 29 5 0 5 31 4 0 5 0 5 0 4 0 5 12 
5 11 4 11 5 0 5 9 4 38 5 0 5 0 4 10 
5 16 5 8 4 7 5 0 5 70 5 15 4 14 5 47 
5 55 4 0 5 0 5 0 4 0 5 0 5 0 4 9 
5 14 5 0 4 35 5 0 5 0 4 24 5 0 5 0 
4 0 5 43 5 4 4 44 5 19 5 0 4 0 5 0 
5 0 4 10 5 19 5 19 4 21 5 3 5 0 4 10 
5 29 5 0 4 0 5 0 5 0 4 0 5 36 5 9 
4 18 5 0 5 0 4 16 5 0 5 1 4 0 5 0 
5 0 4 3 5 0 5 11 4 11 5 1 5 8 4 0 
5 14 5 0 4 8 5 19 5 18 4 26 5 12 5 -13 
4 32 5 17 5 0 4 0 5 0 5 0 4 4 5 0 
5 9 4 0 5 8 5 -5 4 19 5 3 5 2 4 10 
5 -1 5 2 4 -4 5 0 5 0 4 -7 5 3 5 4 
4 0 5 13 5 26 3174 934 300 MP stroke
4 0 5 0 5 0 4 0 5 12 5 -2 4 7 5 -8 
5 0 4 4 5 3 5 -9 4 8 5 0 5 0 4 0 
5 5 5 4 4 11 5 0 5 0 4 -8 5 8 5 -1 
4 -10 5 10 5 1 4 1 5 1 5 0 4 7 5 35 
5 11 4 5 5 7 5 0 4 -1 5 9 5 10 4 12 
5 -6 5 8 4 35 5 0 5 3 4 16 5 0 5 0 
4 3 5 16 5 -9 4 2 5 18 5 17 4 0 5 13 
5 -4 4 0 5 0 5 18 4 0 5 0 5 10 4 15 
5 8 5 0 4 0 5 -15 5 4 4 0 5 5 5 0 
4 -11 5 -23 5 1 4 -9 5 20 5 -30 4 0 5 0 
5 6 4 6 5 -4 5 0 4 -10 5 0 5 0 4 5 
5 -8 5 -17 4 5 5 0 5 -18 4 22 5 -9 5 -1 
4 0 5 0 5 0 4 -1 5 0 5 14 4 0 5 0 
5 -1 4 -6 5 7 5 13 4 0 5 0 5 11 4 0 
5 4 5 -18 4 -29 5 -69 5 0 4 0 5 0 5 0 
4 0 5 0 5 0 4 0 5 0 5 0 4 5 5 3 
5 3 4 3 5 3 5 0 4 0 5 0 5 3 4 -13 
5 19 5 16 4 15 5 0 5 21 4 0 5 0 5 23 
4 0 5 0 5 0 4 -11 5 11 5 0 4 -11 5 0 
5 -1 4 -2 5 0 5 9 4 30 5 38 5 -3 4 -5 
5 0 5 0 4 -10 5 -12 5 0 4 0 5 -5 5 -16 
4 7 5 0 5 -4 4 0 5 0 5 -36 4 0 5 0 
5 -12 4 -13 5 26 5 -10 4 12 5 -1 5 0 4 0 
5 0 5 -7 4 0 5 0 5 -22 4 2 5 4 5 8 
4 0 5 0 5 0 4 0 5 0 5 10 4 6 5 -20 
5 -4 4 -11 5 -15 5 11 4 0 5 -4 5 0 4 -5 
5 -16 5 0 4 -20 5 -9 5 0 4 0 5 -3 5 -11 
4 0 5 -12 5 8 4 9 5 -19 5 -32 4 0 5 -1 
5 0 4 -21 5 14 5 0 4 -10 5 -7 5 5 4 -33 
5 -20 5 3 4 0 5 0 5 -23 4 1 5 0 5 -19 
4 8 5 6 5 21 4 -15 5 -9 5 -6 4 -6 5 13 
5 0 4 0 5 -14 5 0 4 2 5 -1 5 12 4 -34 
5 -4 5 -3 4 2 5 0 5 2 4 -32 5 -10 5 -24 
4 0 5 0 5 -12 4 -5 5 -12 5 -3 4 0 5 0 
5 0 4 2 5 0 5 0 4 -12 5 0 5 -7 4 1 
5 -7 5 -15 4 -25 5 0 5 -28 4 0 5 -14 5 -19 
4 -5 5 -8 5 -49 4 -13 5 -19 5 0 4 -18 5 -4 
5 -2 4 -17 5 0 1779 1359 300 MP stroke
5 -7 4 -10 5 -14 5 -23 4 -6 5 -13 5 -8 4 0 
5 -4 5 -3 4 -7 5 0 5 0 4 -18 5 -12 5 -9 
4 0 5 -4 5 -6 4 0 5 -10 5 -12 4 -25 5 -40 
5 -12 4 -17 5 -30 5 -28 4 0 5 -4 5 0 4 0 
5 0 5 -27 4 -11 5 -24 5 -40 5 0 4 0 5 0 
5 -7 4 -10 5 0 5 -17 4 -39 5 -16 5 -34 4 -19 
5 -34 5 -30 4 0 5 -17 5 0 4 -11 5 0 5 -13 
4 -14 5 -42 5 -14 4 0 5 -18 5 -8 4 0 5 0 
5 -24 4 -18 5 -17 5 -31 4 -25 5 -16 5 -12 4 0 
5 -23 5 0 4 -11 5 -22 5 -24 4 0 5 -34 5 -19 
4 -7 5 0 5 -12 4 -15 5 -11 5 -15 4 -16 5 -15 
5 0 4 -10 5 -10 5 -7 4 -14 5 -3 5 -13 4 -13 
5 0 5 0 4 -18 5 -3 5 0 4 -8 5 -1 5 -5 
4 0 5 -9 5 0 4 5 5 1 5 -6 4 18 5 5 
5 0 4 4 5 2 5 0 4 1 5 0 5 0 4 9 
5 14 5 9 4 6 5 26 5 0 4 11 5 6 5 0 
4 17 5 18 5 0 4 20 5 24 5 0 4 0 5 0 
5 8 4 4 5 0 5 19 4 0 5 18 5 10 4 13 
5 0 5 20 4 0 5 10 5 0 4 12 5 10 5 0 
4 0 5 15 5 0 4 1 5 0 5 0 4 0 5 6 
5 3 4 4 5 15 5 0 4 0 5 4 5 0 4 2 
5 8 5 -1 4 2 5 6 5 0 4 0 5 1 5 4 
4 0 5 -1 5 0 4 1 5 1 5 0 4 4 5 0 
5 2 4 3 5 0 5 1 4 -1 5 -1 5 -1 4 0 
5 5 5 0 4 -1 5 1 5 2 4 0 5 0 5 1 
4 1 5 2 5 0 4 -1 5 0 5 0 4 0 5 0 
5 2 4 1 5 0 5 0 4 -3 5 -4 5 0 4 0 
5 0 5 -1 4 0 5 -1 5 1 4 -1 5 -1 5 0 
4 -1 5 1 5 0 4 -1 5 0 5 3 4 0 5 -4 
5 2 4 -1 5 3 5 5 4 0 5 0 5 -1 4 0 
3 -1 656 2207 242 MP stroke
/c9 { 1.000000 0.250000 0.000000 sr} bdef
c9
5 0 4 0 5 -4 5 0 4 1 5 0 5 2 4 0 
5 1 5 -1 4 -3 5 0 5 0 4 0 5 2 5 -4 
4 0 5 -2 5 3 4 0 5 0 5 1 4 1 5 2 
5 -1 4 1 5 0 5 0 4 1 5 -1 5 -1 4 -3 
5 1 5 0 4 0 5 2 5 0 4 2 5 0 5 2 
4 -3 5 -4 5 0 4 -1 5 0 5 2 4 6 5 0 
5 0 4 -1 5 1 5 0 4 -1 5 1 5 0 4 0 
5 0 5 0 4 1 5 0 5 -1 4 -1 5 0 5 0 
4 -2 5 -1 5 -1 4 -1 5 -5 5 0 4 -1 5 -1 
5 0 4 -2 5 4 5 1 4 -1 5 0 5 0 4 -1 
5 0 5 -1 4 0 5 0 5 0 4 0 5 0 5 -2 
4 1 5 0 5 -4 4 -2 5 -2 5 -1 4 0 5 -1 
5 0 4 -11 5 -2 5 0 4 -2 5 0 5 -8 4 0 
5 -4 5 2 4 0 5 -1 5 0 4 -13 5 0 5 -1 
4 -7 5 -2 5 0 4 -8 5 -5 5 -4 4 -3 5 -3 
5 -10 4 0 5 -10 5 -3 4 -9 5 0 5 0 4 0 
5 -4 5 0 4 -12 5 -13 5 0 4 -7 5 -48 5 0 
4 0 5 0 5 -16 4 0 5 -5 5 -24 4 -10 5 -4 
5 -13 4 -36 5 -8 5 -3 4 -13 5 -9 5 -10 4 -14 
5 -31 5 0 4 -15 5 0 5 -11 4 0 5 0 5 -20 
4 -14 5 -6 5 -19 4 -12 5 -10 5 0 4 -29 5 0 
5 0 4 -28 5 -23 5 -10 4 -25 5 0 5 0 4 -8 
5 -8 5 2 4 0 5 0 5 0 4 0 5 -16 5 0 
4 5 5 2 5 11 4 0 5 -4 5 -6 4 -3 5 -1 
5 10 4 21 5 0 5 6 4 11 5 12 5 0 4 9 
5 0 5 0 4 0 5 1 5 16 5 6 4 0 5 33 
5 13 4 5 5 0 5 27 4 21 5 0 5 25 4 23 
5 18 5 31 4 9 5 0 5 0 4 37 5 20 5 0 
4 0 5 14 5 3 4 0 5 27 5 12 4 0 5 18 
5 13 4 0 5 13 5 11 4 28 5 0 5 21 4 32 
5 0 5 17 4 11 5 14 5 0 4 10 5 30 5 11 
4 0 5 7 5 42 4 19 5 0 5 21 4 0 5 20 
5 14 4 12 5 8 5 12 4 0 5 0 5 10 4 22 
5 0 5 9 4 0 5 9 5 6 4 0 5 7 5 8 
4 33 5 0 5 17 4 12 5 0 5 9 4 22 5 0 
5 17 4 27 5 0 5 0 4 0 5 0 5 9 4 7 
5 11 5 9 4 11 5 0 5 20 4 0 5 24 5 8 
4 12 5 5 5 4 3174 1739 300 MP stroke
4 16 5 6 5 5 4 0 5 0 5 16 4 1 5 0 
5 0 4 9 5 10 5 9 4 11 5 9 5 0 4 5 
5 9 5 14 4 0 5 1 5 4 4 2 5 1 5 0 
4 8 5 3 5 6 4 0 5 4 5 0 4 3 5 7 
5 0 4 10 5 -2 5 2 4 0 5 4 5 11 4 3 
5 8 5 10 4 8 5 3 5 6 4 0 5 0 5 0 
4 9 5 0 5 6 4 5 5 5 5 1 4 0 5 4 
5 16 4 2 5 5 5 6 4 27 5 0 5 0 4 28 
5 0 5 0 4 0 5 10 5 0 4 3 5 15 5 3 
4 13 5 0 5 0 4 15 5 11 5 6 4 -1 5 0 
5 -2 4 0 5 -1 5 -6 4 -2 5 0 5 0 4 -14 
5 0 5 -5 4 0 5 0 5 -6 4 -5 5 3 5 -8 
4 -2 5 -2 5 -2 4 1 5 1 5 3 4 -2 5 1 
5 1 4 0 5 0 5 0 4 0 5 0 5 0 4 0 
5 0 5 0 4 -6 5 0 5 0 4 -5 5 -15 5 -21 
4 0 5 26 5 10 4 5 5 6 5 0 4 8 5 4 
5 1 4 0 5 1 5 0 4 -2 5 3 5 0 4 0 
5 0 5 0 4 -2 5 3 5 0 4 -4 5 1 5 -1 
4 -1 5 -4 5 0 4 -1 5 -4 5 0 4 -2 5 0 
5 0 4 -1 5 -1 5 0 4 0 5 0 5 -3 4 0 
5 0 5 -3 4 0 5 -14 5 -4 4 -3 5 3 5 -6 
4 -4 5 0 5 -15 4 0 5 -5 5 -4 4 -1 5 0 
5 0 4 0 5 -16 5 -12 4 0 5 0 5 0 4 -4 
5 -6 5 0 4 -6 5 -1 5 7 4 4 5 -8 5 -3 
4 -11 5 0 5 0 4 0 5 4 5 -8 4 -3 5 0 
5 0 4 -3 5 -3 5 -8 4 -2 5 -3 5 -9 4 9 
5 -1 5 -19 4 -20 5 0 5 -2 4 -1 5 -4 5 -7 
4 0 5 -3 5 0 4 0 5 -9 5 0 4 -4 5 0 
5 -13 4 -15 5 -5 5 -6 4 -13 5 0 5 -25 4 -20 
5 -7 5 0 4 0 5 -19 5 -8 4 -8 5 -12 5 -9 
4 0 5 0 5 0 4 -17 5 0 5 -3 4 -10 5 -22 
5 0 4 0 5 -16 5 0 4 -21 5 -7 5 -9 4 0 
5 -18 5 -27 4 -8 5 0 5 0 4 -19 5 0 5 0 
4 0 5 0 5 -41 4 -10 5 -12 5 0 4 0 5 -28 
5 -6 4 -39 5 -9 5 -7 4 -16 5 -6 5 0 4 -23 
5 0 5 -9 4 -19 5 0 5 -13 4 0 5 -15 5 -11 
4 0 5 -9 5 -27 4 0 5 -13 5 -10 4 -20 5 -18 
5 -9 4 -6 5 -16 1779 2317 300 MP stroke
5 0 4 -25 5 -11 5 -6 4 -4 5 -11 5 -10 4 0 
5 -54 5 -20 4 -7 5 -11 5 0 4 -11 5 -13 5 -41 
4 -14 5 -7 5 -10 4 0 5 -7 5 -4 4 0 5 -3 
5 -19 4 -16 5 0 5 -20 4 0 5 -20 5 -13 4 -9 
5 -18 5 -7 4 -12 5 -6 5 0 5 -30 4 -10 5 0 
5 -12 4 0 5 1 5 -3 4 0 5 1 5 -7 4 -2 
5 0 5 -4 4 13 5 -8 5 1 4 -10 5 -6 5 8 
4 -1 5 0 5 9 4 24 5 0 5 15 4 6 5 7 
5 8 4 0 5 9 5 20 4 16 5 0 5 0 4 16 
5 0 5 0 4 5 5 9 5 23 4 6 5 21 5 10 
4 11 5 7 5 0 4 18 5 21 5 13 4 11 5 12 
5 0 4 8 5 11 5 3 4 19 5 5 5 2 4 22 
5 6 5 10 4 0 5 5 5 7 4 18 5 3 5 27 
4 0 5 12 5 0 4 -1 5 2 5 0 4 7 5 0 
5 16 4 10 5 4 5 10 4 0 5 9 5 0 4 0 
5 4 5 9 4 2 5 0 5 6 4 1 5 0 5 9 
4 0 5 2 5 0 4 0 5 3 5 0 4 0 5 0 
5 0 4 4 5 0 5 0 4 -1 5 4 5 7 4 0 
5 0 5 0 4 2 5 2 5 1 4 0 5 0 5 0 
4 1 5 -3 5 7 4 0 5 6 5 1 4 -1 5 -1 
5 0 4 -1 5 0 5 0 4 0 5 1 5 1 4 -2 
5 -1 5 0 4 2 5 0 5 -2 4 -1 5 0 5 2 
4 3 5 0 5 4 4 -1 5 -1 5 1 4 0 5 0 
5 -2 4 -2 5 0 5 2 4 1 5 -2 5 0 4 4 
5 -3 5 0 4 0 5 0 5 -2 4 0 5 5 5 2 
4 -2 5 1 5 0 4 1 5 -1 5 -4 4 0 5 0 
5 0 4 0 5 -2 5 -2 4 1 5 0 5 2 4 0 
5 -2 5 0 4 3 5 0 5 -2 4 -2 5 0 5 0 
4 0 5 -1 5 0 4 0 5 0 5 -1 4 2 5 0 
5 0 4 2 5 0 5 1 4 0 5 0 5 1 4 3 
3 2 656 2210 242 MP stroke
/c10 { 1.000000 0.500000 0.000000 sr} bdef
c10
5 0 4 0 5 0 5 0 4 0 5 0 5 0 4 0 
5 0 5 4 4 -1 5 3 5 0 4 -1 5 0 5 -7 
4 2 5 0 5 0 4 0 5 0 5 0 4 1 5 -1 
5 4 4 0 5 -1 5 0 4 0 5 0 5 -1 4 0 
5 0 5 0 4 3 5 0 5 0 4 1 5 -3 5 0 
4 0 5 0 5 0 4 0 5 0 5 0 4 0 5 -2 
5 -1 4 0 5 -2 5 0 4 -1 5 2 5 -2 4 1 
5 2 5 -2 4 0 5 5 5 0 4 -1 5 0 5 0 
4 0 5 0 5 0 4 0 5 0 5 0 4 0 5 0 
5 1 4 -1 5 0 5 -2 4 1 5 1 5 -2 4 -1 
5 -2 5 -1 4 -3 5 1 5 1 4 1 5 1 5 -1 
4 0 5 0 5 0 4 0 5 0 5 0 4 0 5 1 
5 0 4 0 5 -1 5 -2 4 -1 5 -2 5 -3 4 0 
5 1 5 -1 4 -1 5 1 5 0 4 0 5 -1 5 -1 
4 0 5 -1 5 0 4 -8 5 0 5 0 4 0 5 3 
5 0 4 0 5 -2 5 0 4 -2 5 1 5 -2 4 -3 
5 -4 5 -3 4 -4 5 0 5 0 4 0 5 0 5 0 
4 -4 5 -2 5 0 4 -5 5 -1 5 0 4 -5 5 0 
5 0 4 0 5 0 5 -10 4 0 5 0 5 -4 4 -13 
5 0 5 -2 4 0 5 -5 5 1 4 -25 5 0 5 0 
4 -11 5 0 5 0 4 0 5 0 5 0 4 0 5 -3 
5 -9 4 -29 5 -7 5 -19 4 -6 5 0 5 0 4 -30 
5 -20 5 -4 4 -35 5 -11 5 -7 4 -12 5 -4 5 0 
4 0 5 0 5 -5 4 0 5 0 5 -1 4 -40 5 -31 
5 -11 4 0 5 0 5 0 4 0 5 0 5 -25 4 -62 
5 -24 5 -38 4 -41 5 0 5 0 5 0 4 0 5 0 
5 0 4 0 5 0 5 0 4 -22 5 -16 5 -6 4 0 
5 -7 5 -2 4 0 5 0 5 -26 4 -11 5 -14 5 -2 
4 0 5 -13 5 -2 4 -17 5 2 5 -2 4 3 5 0 
5 0 4 3 5 2 5 9 4 0 5 0 5 0 4 0 
5 0 5 26 4 0 5 12 5 2 4 20 5 0 5 0 
4 0 5 0 5 0 4 2 5 6 5 20 4 6 5 0 
5 47 4 4 5 7 5 39 4 5 5 11 5 53 4 18 
5 11 5 0 4 0 5 10 5 9 4 23 5 0 5 0 
4 0 5 0 5 0 4 0 5 0 5 18 4 40 5 17 
5 0 4 0 5 11 5 28 4 9 5 11 5 4 4 3 
5 19 5 0 4 8 5 0 5 27 4 0 5 0 5 8 
4 9 5 9 5 13 3174 2369 300 MP stroke
4 0 5 25 5 0 4 0 5 20 5 42 4 10 5 12 
5 7 4 4 5 0 5 0 4 0 5 0 5 7 4 0 
5 19 5 1 4 9 5 8 5 0 4 7 5 12 5 8 
4 1 5 17 5 20 4 8 5 0 5 0 4 7 5 18 
5 0 4 6 5 7 5 0 4 0 5 4 5 0 4 21 
5 0 5 0 4 0 5 8 5 21 4 0 5 15 5 21 
4 23 5 0 5 6 4 0 5 0 5 5 4 3 5 4 
5 0 4 14 5 0 5 4 4 0 5 5 5 0 4 14 
5 0 5 9 4 24 5 8 5 17 4 9 5 0 5 0 
4 0 5 0 5 0 4 4 5 0 5 5 4 5 5 0 
5 0 4 3 5 0 5 10 4 4 5 0 5 14 4 0 
5 9 5 4 4 5 5 0 5 0 4 0 5 0 5 0 
4 0 5 0 5 0 4 -3 5 1 5 0 4 0 5 0 
5 -1 4 0 5 -3 5 -8 4 -3 5 -12 5 -11 4 -8 
5 0 5 0 4 0 5 0 5 0 4 0 5 0 5 0 
4 0 5 0 5 0 4 0 5 0 5 0 4 0 5 0 
5 0 4 -1 5 -1 5 1 4 -1 5 2 5 1 4 0 
5 -1 5 0 4 0 5 1 5 -7 4 0 5 0 5 0 
4 0 5 -8 5 0 4 0 5 0 5 0 4 0 5 0 
5 1 4 3 5 -5 5 0 4 -3 5 -20 5 0 4 0 
5 -3 5 0 4 -5 5 0 5 0 4 -1 5 -3 5 0 
4 0 5 0 5 0 4 -8 5 -3 5 -15 4 -6 5 -6 
5 -7 4 -3 5 -1 5 -7 4 1 5 0 5 -2 4 0 
5 0 5 -5 4 -6 5 0 5 0 4 0 5 0 5 -1 
4 -8 5 -10 5 -6 4 -16 5 -6 5 0 4 -15 5 0 
5 -4 4 0 5 0 5 -18 4 0 5 0 5 -2 4 0 
5 -4 5 0 4 -4 5 -20 5 -5 4 -7 5 -18 5 0 
4 -25 5 -9 5 0 4 -7 5 -13 5 -5 4 0 5 0 
5 -7 4 -17 5 -22 5 -5 4 0 5 0 5 0 4 -1 
5 0 5 0 4 -13 5 -15 5 -10 4 -36 5 -7 5 -8 
4 0 5 -19 5 -18 4 0 5 0 5 -7 4 -5 5 -12 
5 0 4 -32 5 -7 5 0 4 0 5 0 5 -27 4 -4 
5 -22 5 -11 4 -21 5 0 5 -4 4 -9 5 -11 5 -38 
4 -12 5 0 5 0 4 0 5 0 5 0 4 -8 5 0 
5 -11 4 -23 5 0 5 -11 4 -9 5 -22 5 -20 4 -12 
5 -8 5 0 4 -26 5 -24 5 -20 4 -24 5 -11 5 0 
4 -12 5 -10 5 0 4 0 5 2 5 -11 4 0 5 -9 
5 -12 4 -10 5 -3 1779 2859 300 MP stroke
5 -5 4 -4 5 0 5 0 4 0 5 -10 5 0 4 3 
5 1 5 0 4 -5 5 -10 5 0 4 3 5 7 5 6 
4 -5 5 -20 5 13 4 8 5 14 5 20 4 0 5 0 
5 0 4 0 5 0 5 -3 4 0 5 10 5 26 4 8 
5 0 5 1 4 0 5 0 5 0 5 7 4 8 5 2 
5 42 4 9 5 51 5 27 4 8 5 27 5 3 4 4 
5 0 5 7 4 0 5 25 5 5 4 21 5 0 5 0 
4 9 5 0 5 0 4 17 5 10 5 0 4 24 5 17 
5 8 4 13 5 8 5 18 4 23 5 5 5 0 4 20 
5 1 5 2 4 4 5 9 5 3 4 0 5 0 5 0 
4 13 5 -1 5 20 4 0 5 3 5 2 4 0 5 28 
5 0 4 0 5 -2 5 0 4 24 5 0 5 4 4 -2 
5 8 5 0 4 0 5 0 5 6 4 1 5 2 5 7 
4 3 5 4 5 -1 4 0 5 0 5 0 4 5 5 0 
5 0 4 -1 5 2 5 0 4 1 5 -1 5 -3 4 0 
5 0 5 -2 4 0 5 4 5 -1 4 2 5 -2 5 -2 
4 0 5 2 5 0 4 2 5 0 5 0 4 -4 5 1 
5 6 4 1 5 -1 5 1 4 1 5 0 5 2 4 2 
5 -1 5 3 4 -1 5 1 5 2 4 0 5 0 5 0 
4 2 5 0 5 0 4 0 5 2 5 -1 4 -1 5 1 
5 2 4 0 5 4 5 3 4 1 5 0 5 -6 4 -1 
5 0 5 0 4 1 5 0 5 0 4 -1 5 0 5 0 
4 0 5 1 5 0 4 1 5 -2 5 0 4 -1 5 2 
5 1 4 0 5 -1 5 -1 4 0 5 0 5 0 4 0 
5 0 5 -1 4 0 5 1 5 1 4 3 5 0 5 -1 
4 -1 5 0 5 3 4 0 5 4 5 -4 4 2 5 0 
5 1 4 4 5 0 5 0 4 -1 5 0 5 0 4 0 
5 0 5 0 4 0 5 1 5 1 4 0 5 0 5 0 
4 1 5 0 5 2 4 0 5 -1 5 4 4 -2 5 0 
5 1 4 0 5 -1 5 0 4 0 5 0 5 0 4 0 
3 1 656 2202 242 MP stroke
/c11 { 1.000000 0.750000 0.000000 sr} bdef
c11
5 0 4 1 5 -1 5 0 4 0 5 1 5 3 4 0 
5 -3 5 0 4 1 5 0 5 0 4 0 5 0 5 -1 
4 0 5 -1 5 0 4 2 5 0 5 -1 4 1 5 0 
5 -1 4 0 5 0 5 0 4 -3 5 2 5 -1 4 0 
5 5 5 -2 4 0 5 -3 5 -2 4 0 5 0 5 0 
4 -1 5 -1 5 0 4 -1 5 1 5 2 4 -2 5 0 
5 0 4 -2 5 2 5 2 4 3 5 0 5 0 4 1 
5 -5 5 0 4 4 5 1 5 -1 4 0 5 2 5 0 
4 -1 5 0 5 0 4 0 5 0 5 0 4 1 5 1 
5 -2 4 0 5 0 5 1 4 0 5 0 5 0 4 1 
5 -1 5 -2 4 0 5 0 5 -3 4 1 5 -1 5 0 
4 1 5 0 5 0 4 0 5 -1 5 0 4 0 5 0 
5 -1 4 -1 5 -2 5 0 4 0 5 0 5 -3 4 -2 
5 0 5 -4 4 -3 5 0 5 0 4 3 5 0 5 0 
4 -1 5 1 5 -4 4 0 5 2 5 0 4 0 5 0 
5 2 4 0 5 0 5 0 4 0 5 -3 5 0 4 -1 
5 -1 5 -1 4 0 5 0 5 -4 4 0 5 2 5 -2 
4 1 5 0 5 1 4 0 5 -2 5 -1 4 -4 5 0 
5 1 4 0 5 -2 5 0 4 0 5 3 5 0 4 0 
5 0 5 0 4 -3 5 -1 5 2 4 1 5 0 5 -2 
4 -2 5 0 5 -1 4 0 5 0 5 0 4 -2 5 -1 
5 0 4 0 5 -2 5 1 4 -3 5 0 5 0 4 -6 
5 1 5 -1 4 2 5 0 5 -1 4 0 5 0 5 0 
4 0 5 0 5 -3 4 0 5 -6 5 -3 4 -3 5 0 
5 0 4 1 5 0 5 -2 4 -12 5 -3 5 -10 4 -8 
5 -2 5 -8 4 -4 5 0 5 -1 5 -3 4 -3 5 -5 
5 0 4 0 5 -8 5 -11 4 -9 5 0 5 -7 4 -10 
5 0 5 0 4 -11 5 -35 5 0 4 -27 5 -20 5 -2 
4 -15 5 -21 5 -16 4 -9 5 -8 5 -20 4 -11 5 -11 
5 -14 4 -10 5 -14 5 0 4 -16 5 0 5 0 4 -12 
5 -27 5 0 4 -26 5 -13 5 -31 4 -17 5 0 5 -10 
4 0 5 0 5 -10 4 -3 5 -22 5 -12 4 -7 5 -31 
5 -22 4 -7 5 -23 5 -8 4 -17 5 -41 5 0 4 -10 
5 -31 5 -1 4 -13 5 0 5 -13 4 0 5 -9 5 0 
4 0 5 0 5 0 4 -7 5 0 5 -9 4 -8 5 0 
5 -14 4 0 5 -2 5 -4 4 -4 5 -7 5 -6 4 -4 
5 0 5 0 4 0 5 2 5 -1 4 -2 5 0 5 1 
4 2 5 3 5 0 3174 3119 300 MP stroke
4 8 5 0 5 9 4 0 5 9 5 10 4 10 5 6 
5 4 4 0 5 3 5 0 4 0 5 5 5 7 4 12 
5 0 5 9 4 5 5 6 5 6 4 8 5 5 5 10 
4 0 5 16 5 0 4 15 5 14 5 3 4 5 5 5 
5 14 4 0 5 0 5 4 4 5 5 0 5 10 4 0 
5 8 5 4 4 7 5 14 5 0 4 19 5 14 5 19 
4 13 5 10 5 0 4 3 5 5 5 0 4 6 5 3 
5 12 4 0 5 5 5 0 4 6 5 0 5 10 4 0 
5 18 5 10 4 4 5 18 5 2 4 6 5 6 5 0 
4 0 5 0 5 4 4 0 5 7 5 0 4 0 5 3 
5 3 4 4 5 5 5 0 4 5 5 9 5 6 4 17 
5 9 5 9 4 9 5 0 5 2 4 0 5 0 5 0 
4 0 5 4 5 0 4 0 5 2 5 0 4 2 5 2 
5 0 4 2 5 4 5 4 4 0 5 7 5 7 4 3 
5 0 5 0 4 0 5 0 5 0 4 0 5 0 5 0 
4 0 5 0 5 0 4 0 5 0 5 0 4 0 5 0 
5 0 4 -2 5 -1 5 -16 4 -5 5 -7 5 0 4 -4 
5 2 5 -2 4 -1 5 0 5 1 4 0 5 0 5 -3 
4 0 5 0 5 2 4 0 5 0 5 0 4 -5 5 -7 
5 -11 4 -18 5 -5 5 -9 4 -4 5 -3 5 0 4 -8 
5 -5 5 0 4 -4 5 0 5 -6 4 0 5 -2 5 0 
4 0 5 0 5 0 4 -7 5 -3 5 -16 4 -10 5 -12 
5 -6 4 -6 5 -6 5 -7 4 -6 5 0 5 0 4 -5 
5 -6 5 -10 4 -2 5 -2 5 -2 4 -1 5 0 5 -7 
4 -13 5 -7 5 -19 4 -16 5 0 5 -12 4 -2 5 0 
5 -8 4 0 5 -14 5 -5 4 0 5 0 5 0 4 -4 
5 -7 5 -6 4 -16 5 0 5 -6 4 -11 5 0 5 -17 
4 -9 5 -12 5 0 4 -8 5 -10 5 -4 4 0 5 -10 
5 -4 4 -9 5 -5 5 -5 4 0 5 0 5 0 4 0 
5 0 5 1 4 -7 5 -1 5 -13 4 -9 5 1 5 0 
4 4 5 -3 5 -5 4 0 5 2 5 0 4 -5 5 6 
5 6 4 0 5 -5 5 1 4 0 5 9 5 1 4 12 
5 0 5 11 4 -1 5 10 5 8 4 0 5 24 5 9 
4 0 5 0 5 0 4 0 5 0 5 10 4 0 5 12 
5 8 4 3 5 0 5 11 4 11 5 25 5 13 4 22 
5 11 5 14 4 22 5 23 5 17 4 16 5 0 5 12 
4 16 5 11 5 0 4 0 5 9 5 4 4 0 5 22 
5 25 4 13 5 26 1779 2609 300 MP stroke
5 13 4 11 5 0 5 0 4 11 5 0 5 0 4 15 
5 12 5 0 4 8 5 5 5 5 4 15 5 26 5 12 
4 16 5 0 5 23 4 6 5 30 5 7 4 8 5 0 
5 0 4 -1 5 2 5 7 4 3 5 22 5 0 4 7 
5 0 5 3 4 0 5 0 5 0 5 2 4 -1 5 3 
5 8 4 19 5 2 5 17 4 10 5 0 5 0 4 0 
5 -1 5 0 4 3 5 7 5 -2 4 0 5 2 5 0 
4 4 5 -2 5 0 4 -3 5 -2 5 0 4 1 5 3 
5 9 4 3 5 3 5 5 4 4 5 0 5 0 4 2 
5 -2 5 0 4 1 5 0 5 0 4 0 5 -6 5 0 
4 2 5 -2 5 4 4 0 5 -3 5 0 4 0 5 -2 
5 1 4 0 5 9 5 -1 4 0 5 2 5 2 4 5 
5 0 5 0 4 -1 5 0 5 0 4 0 5 4 5 3 
4 0 5 0 5 -1 4 0 5 0 5 0 4 0 5 0 
5 0 4 3 5 0 5 -2 4 5 5 0 5 0 4 0 
5 0 5 0 4 -3 5 -1 5 0 4 1 5 2 5 -1 
4 -2 5 0 5 2 4 0 5 0 5 0 4 1 5 0 
5 -2 4 -1 5 -3 5 2 4 0 5 -1 5 1 4 2 
5 1 5 0 4 2 5 1 5 0 4 0 5 0 5 -1 
4 0 5 0 5 2 4 -1 5 -2 5 1 4 0 5 0 
5 0 4 3 5 1 5 1 4 0 5 -1 5 0 4 0 
5 1 5 0 4 0 5 0 5 1 4 0 5 0 5 1 
4 0 5 1 5 0 4 1 5 0 5 -4 4 -3 5 0 
5 -1 4 1 5 1 5 -2 4 -1 5 5 5 -3 4 0 
5 1 5 1 4 2 5 0 5 0 4 -1 5 0 5 -1 
4 0 5 1 5 0 4 5 5 -1 5 -3 4 2 5 1 
5 3 4 0 5 -2 5 0 4 0 5 0 5 0 4 -1 
5 -2 5 0 4 -1 5 0 5 0 4 1 5 0 5 3 
4 1 5 2 5 1 4 -2 5 1 5 0 4 0 5 0 
5 -1 4 1 5 0 5 0 4 0 5 0 5 0 4 0 
3 0 656 2213 242 MP stroke
0 sg
3914 0 656 2208 2 MP stroke
0 -3081 2612 3364 2 MP stroke
DA
c8
4 76 5 77 5 70 4 64 5 59 5 54 4 51 5 47 
5 44 4 42 5 39 5 37 4 36 5 33 5 32 4 31 
5 29 5 29 4 27 5 26 5 25 4 24 5 24 5 22 
4 22 5 22 5 20 4 21 5 19 5 19 4 19 5 18 
5 17 4 17 5 17 5 16 4 16 5 16 5 15 4 15 
5 15 5 14 4 14 5 14 5 13 4 13 5 13 5 13 
4 13 5 12 5 12 4 12 5 11 5 12 4 11 5 11 
5 11 4 11 5 10 5 11 4 10 5 10 5 10 5 10 
4 9 5 10 5 9 4 10 5 9 5 9 4 9 5 8 
5 9 4 8 5 9 5 8 4 8 5 8 5 8 4 8 
5 8 5 8 4 7 5 8 5 7 4 7 5 8 5 7 
4 7 5 7 5 7 4 7 5 6 5 7 4 6 5 7 
5 6 4 7 5 6 5 6 4 6 5 6 5 6 4 6 
5 6 5 6 4 6 5 6 5 5 4 6 5 5 5 6 
4 5 5 5 5 6 4 5 5 5 5 5 4 5 5 5 
5 5 4 5 5 5 5 5 4 4 5 5 5 5 4 4 
5 5 5 4 4 5 5 4 5 5 4 4 5 4 5 5 
4 4 5 4 5 4 4 4 5 4 5 4 4 4 5 4 
5 4 4 3 5 4 5 4 4 4 5 3 5 4 4 3 
5 4 5 3 4 4 5 3 5 4 4 3 5 3 5 4 
4 3 5 3 5 3 4 3 5 3 5 4 4 3 5 3 
5 3 4 2 5 3 5 3 4 3 5 3 5 3 4 2 
5 3 5 3 4 2 5 3 5 2 4 3 5 2 5 3 
4 2 5 3 5 2 4 3 5 2 5 2 4 2 5 3 
5 2 4 2 5 2 5 2 4 2 5 2 5 2 4 2 
5 2 5 2 4 2 5 2 5 2 4 2 5 2 5 1 
4 2 5 2 5 2 4 1 5 2 5 1 4 2 5 2 
5 1 4 2 5 1 5 2 4 1 5 1 5 2 4 1 
5 1 5 2 4 1 5 1 5 1 4 2 5 1 5 1 
4 1 5 1 5 1 4 1 5 1 5 1 4 1 5 1 
5 1 4 1 5 1 5 1 4 0 5 1 5 1 4 1 
5 0 5 1 4 1 5 0 5 1 4 0 5 1 5 1 
4 0 5 1 5 0 4 0 5 1 5 0 4 1 5 0 
5 0 4 1 5 0 5 0 4 0 5 1 5 0 4 0 
5 0 5 0 4 0 5 0 5 0 4 0 5 0 5 0 
4 0 5 0 5 0 4 0 5 0 5 -1 4 0 5 0 
5 0 4 -1 5 0 5 0 4 -1 5 0 5 -1 4 0 
5 0 5 -1 4 0 2512 1067 300 MP stroke
5 -1 5 -1 4 0 5 -1 5 0 4 -1 5 -1 5 0 
4 -1 5 -1 5 -1 4 0 5 -1 5 -1 4 -1 5 -1 
5 -1 4 -1 5 -1 5 -1 4 -1 5 -1 5 -1 4 -1 
5 -1 5 -1 4 -2 5 -1 5 -1 4 -1 5 -2 5 -1 
4 -1 5 -2 5 -1 4 -1 5 -2 5 -1 4 -2 5 -1 
5 -2 4 -2 5 -1 5 -2 4 -1 5 -2 5 -2 4 -2 
5 -1 5 -2 4 -2 5 -2 5 -2 4 -2 5 -2 5 -2 
4 -2 5 -2 5 -2 4 -2 5 -2 5 -2 4 -2 5 -2 
5 -3 4 -2 5 -2 5 -2 4 -3 5 -2 5 -3 4 -2 
5 -3 5 -2 4 -3 5 -2 5 -3 4 -2 5 -3 5 -3 
4 -2 5 -3 5 -3 4 -3 5 -3 5 -3 4 -2 5 -3 
5 -3 4 -3 5 -4 5 -3 4 -3 5 -3 5 -3 4 -3 
5 -4 5 -3 4 -3 5 -4 5 -3 4 -4 5 -3 5 -4 
4 -3 5 -4 5 -3 4 -4 5 -4 5 -4 4 -3 5 -4 
5 -4 4 -4 5 -4 5 -4 4 -4 5 -4 5 -4 4 -4 
5 -5 5 -4 4 -4 5 -5 5 -4 4 -5 5 -4 5 -5 
4 -4 5 -5 5 -5 4 -4 5 -5 5 -5 4 -5 5 -5 
5 -5 4 -5 5 -5 5 -5 4 -5 5 -6 5 -5 4 -5 
5 -6 5 -5 4 -6 5 -5 5 -6 4 -6 5 -6 5 -6 
4 -6 5 -6 5 -6 4 -6 5 -6 5 -6 4 -7 5 -6 
5 -7 4 -6 5 -7 5 -6 4 -7 5 -7 5 -7 4 -7 
5 -7 5 -8 4 -7 5 -7 5 -8 4 -7 5 -8 5 -8 
4 -8 5 -8 5 -8 4 -8 5 -8 5 -9 4 -8 5 -9 
5 -8 4 -9 5 -9 5 -9 4 -10 5 -9 5 -10 4 -9 
5 -10 5 -10 5 -10 4 -10 5 -11 5 -10 4 -11 5 -11 
5 -11 4 -11 5 -12 5 -11 4 -12 5 -12 5 -12 4 -13 
5 -13 5 -13 4 -13 5 -13 5 -14 4 -14 5 -14 5 -15 
4 -15 5 -15 5 -16 4 -16 5 -16 5 -17 4 -17 5 -17 
5 -18 4 -19 5 -19 5 -19 4 -21 5 -20 5 -22 4 -22 
5 -22 5 -24 4 -24 5 -25 5 -26 4 -27 5 -29 5 -29 
4 -31 5 -32 5 -33 4 -36 5 -37 5 -39 4 -42 5 -44 
5 -47 4 -51 5 -54 5 -59 4 -64 5 -70 5 -77 4 -76 
1317 3365 257 MP stroke
c9
1 13 4 60 5 56 5 52 5 48 4 46 5 43 5 40 
4 38 5 37 5 34 4 33 5 32 5 30 4 29 5 27 
5 27 4 26 5 25 5 23 4 23 5 23 5 21 4 21 
5 21 5 19 4 19 5 19 5 18 4 18 5 17 5 16 
4 17 5 16 5 15 4 15 5 15 5 14 4 14 5 14 
5 14 4 13 5 13 5 13 4 12 5 12 5 12 4 12 
5 11 5 12 4 11 5 11 5 10 4 11 5 10 5 10 
4 10 5 10 5 9 4 10 5 9 5 9 4 9 5 9 
5 9 4 8 5 9 5 8 4 8 5 8 5 8 4 8 
5 8 5 7 4 8 5 7 5 8 4 7 5 7 5 7 
4 6 5 7 5 7 4 6 5 7 5 6 4 7 5 6 
5 6 4 6 5 6 5 6 4 5 5 6 5 6 4 5 
5 6 5 5 4 6 5 5 5 5 4 5 5 5 5 5 
4 5 5 5 5 5 4 4 5 5 5 5 4 4 5 5 
5 4 4 4 5 5 5 4 4 4 5 4 5 4 4 4 
5 4 5 4 4 4 5 4 5 3 4 4 5 4 5 3 
4 4 5 3 5 4 4 3 5 3 5 4 4 3 5 3 
5 3 4 3 5 3 5 3 4 3 5 3 5 3 4 3 
5 2 5 3 4 3 5 3 5 2 4 3 5 2 5 3 
4 2 5 2 5 3 4 2 5 2 5 2 4 3 5 2 
5 2 4 2 5 2 5 2 4 2 5 2 5 2 4 1 
5 2 5 2 4 2 5 1 5 2 4 2 5 1 5 2 
4 1 5 1 5 2 4 1 5 2 5 1 4 1 5 1 
5 2 4 1 5 1 5 1 4 1 5 1 5 1 4 1 
5 1 5 1 4 0 5 1 5 1 4 1 5 0 5 1 
4 1 5 0 5 1 4 0 5 1 5 0 4 1 5 0 
5 0 4 1 5 0 5 0 4 0 5 1 5 0 4 0 
5 0 5 0 4 0 5 0 5 0 4 0 5 0 5 -1 
4 0 5 0 5 0 4 -1 5 0 5 0 4 -1 5 0 
5 -1 4 0 5 -1 5 0 4 -1 5 -1 5 0 4 -1 
5 -1 5 -1 4 0 5 -1 5 -1 4 -1 5 -1 5 -1 
4 -1 5 -1 5 -1 4 -1 5 -2 5 -1 4 -1 5 -1 
5 -2 4 -1 5 -2 5 -1 4 -1 5 -2 5 -1 4 -2 
5 -2 5 -1 4 -2 5 -2 5 -2 4 -1 5 -2 5 -2 
4 -2 5 -2 5 -2 4 -2 5 -2 5 -2 4 -3 5 -2 
5 -2 4 -2 5 -3 5 -2 4 -2 5 -3 5 -2 4 -3 
5 -2 5 -3 4 -3 5 -3 5 -2 4 -3 5 -3 5 -3 
4 -3 5 -3 5 -3 2236 1630 300 MP stroke
4 -3 5 -3 5 -3 4 -3 5 -4 5 -3 4 -3 5 -4 
5 -3 4 -4 5 -3 5 -4 4 -4 5 -3 5 -4 4 -4 
5 -4 5 -4 4 -4 5 -4 5 -4 4 -4 5 -4 5 -5 
4 -4 5 -4 5 -5 4 -4 5 -5 5 -5 4 -4 5 -5 
5 -5 4 -5 5 -5 5 -5 4 -5 5 -5 5 -5 4 -6 
5 -5 5 -6 4 -5 5 -6 5 -6 4 -5 5 -6 5 -6 
4 -6 5 -6 5 -6 4 -7 5 -6 5 -7 4 -6 5 -7 
5 -7 4 -6 5 -7 5 -7 4 -7 5 -8 5 -7 4 -8 
5 -7 5 -8 4 -8 5 -8 5 -8 4 -8 5 -8 5 -9 
4 -8 5 -9 5 -9 4 -9 5 -9 5 -9 4 -10 5 -9 
5 -10 4 -10 5 -10 5 -10 4 -11 5 -10 5 -11 4 -11 
5 -12 5 -11 4 -12 5 -12 5 -12 4 -12 5 -13 5 -13 
4 -13 5 -14 5 -14 4 -14 5 -14 5 -15 4 -15 5 -15 
5 -16 4 -17 5 -16 5 -17 4 -18 5 -18 5 -19 4 -19 
5 -19 5 -21 4 -21 5 -21 5 -23 4 -23 5 -23 5 -25 
4 -26 5 -27 5 -27 4 -29 5 -30 5 -32 4 -33 5 -34 
5 -37 4 -38 5 -40 5 -43 4 -46 5 -48 5 -52 5 -56 
4 -60 1 -13 1596 3365 139 MP stroke
c10
4 43 5 46 4 44 5 42 5 39 4 37 5 35 5 33 
4 32 5 30 5 30 4 27 5 27 5 26 4 25 5 23 
5 23 4 23 5 21 5 21 4 20 5 19 5 19 4 18 
5 18 5 17 4 17 5 16 5 16 4 15 5 15 5 15 
4 14 5 14 5 14 4 13 5 13 5 12 4 13 5 12 
5 12 4 11 5 11 5 12 4 10 5 11 5 10 4 11 
5 9 5 10 4 10 5 9 5 9 4 9 5 9 5 9 
4 9 5 8 5 8 4 8 5 8 5 8 4 7 5 8 
5 7 4 8 5 7 5 7 4 6 5 7 5 7 4 6 
5 7 5 6 4 6 5 6 5 6 4 6 5 6 5 5 
4 6 5 5 5 6 4 5 5 5 5 5 4 5 5 5 
5 5 4 5 5 5 5 4 4 5 5 4 5 4 4 5 
5 4 5 4 4 4 5 4 5 4 4 4 5 3 5 4 
4 4 5 3 5 4 4 3 5 3 5 4 4 3 5 3 
5 3 4 3 5 3 5 3 4 3 5 3 5 2 4 3 
5 3 5 2 4 3 5 2 5 2 4 3 5 2 5 2 
4 2 5 2 5 2 4 2 5 2 5 2 4 2 5 2 
5 1 4 2 5 2 5 1 4 2 5 1 5 2 4 1 
5 1 5 1 4 2 5 1 5 1 4 1 5 1 5 1 
4 1 5 0 5 1 4 1 5 1 5 0 4 1 5 0 
5 1 4 0 5 1 5 0 4 0 5 1 5 0 4 0 
5 0 5 0 4 0 5 0 5 0 4 0 5 0 5 -1 
4 0 5 0 5 -1 4 0 5 -1 5 0 4 -1 5 0 
5 -1 4 -1 5 -1 5 0 4 -1 5 -1 5 -1 4 -1 
5 -1 5 -1 4 -2 5 -1 5 -1 4 -1 5 -2 5 -1 
4 -2 5 -1 5 -2 4 -2 5 -1 5 -2 4 -2 5 -2 
5 -2 4 -2 5 -2 5 -2 4 -2 5 -2 5 -2 4 -3 
5 -2 5 -2 4 -3 5 -2 5 -3 4 -3 5 -2 5 -3 
4 -3 5 -3 5 -3 4 -3 5 -3 5 -3 4 -3 5 -4 
5 -3 4 -3 5 -4 5 -3 4 -4 5 -4 5 -3 4 -4 
5 -4 5 -4 4 -4 5 -4 5 -4 4 -5 5 -4 5 -4 
4 -5 5 -4 5 -5 4 -5 5 -5 5 -5 4 -5 5 -5 
5 -5 4 -5 5 -6 5 -5 4 -6 5 -5 5 -6 4 -6 
5 -6 5 -6 4 -6 5 -6 5 -7 4 -6 5 -7 5 -7 
4 -6 5 -7 5 -7 4 -8 5 -7 5 -8 4 -7 5 -8 
5 -8 4 -8 5 -8 5 -8 4 -9 5 -9 5 -9 4 -9 
5 -9 5 -9 4 -10 5 -10 5 -9 4 -11 5 -10 5 -11 
4 -10 5 -12 5 -11 2012 2405 300 MP stroke
4 -11 5 -12 5 -12 4 -13 5 -12 5 -13 4 -13 5 -14 
5 -14 4 -14 5 -15 5 -15 4 -15 5 -16 5 -16 4 -17 
5 -17 5 -18 4 -18 5 -19 5 -19 4 -20 5 -21 5 -21 
4 -23 5 -23 5 -23 4 -25 5 -26 5 -27 4 -27 5 -30 
5 -30 4 -32 5 -33 5 -35 4 -37 5 -39 5 -42 4 -44 
5 -46 4 -43 1817 3365 43 MP stroke
c11
3 22 5 32 5 30 4 28 5 28 5 26 4 25 5 23 
5 23 4 22 5 21 5 21 4 19 5 19 5 18 4 18 
5 17 5 16 4 16 5 15 5 15 4 14 5 14 5 13 
4 14 5 12 5 12 4 12 5 12 5 11 4 11 5 10 
5 11 4 10 5 9 5 10 4 9 5 9 5 9 4 8 
5 8 5 8 4 8 5 7 5 8 4 7 5 7 5 7 
4 6 5 6 5 7 4 6 5 5 5 6 4 6 5 5 
5 5 4 5 5 5 5 5 4 4 5 5 5 4 4 4 
5 4 5 4 4 4 5 4 5 3 4 3 5 4 5 3 
4 3 5 3 5 2 4 3 5 3 5 2 4 2 5 2 
5 2 4 2 5 2 5 2 4 1 5 2 5 1 4 2 
5 1 5 1 4 1 5 1 5 0 4 1 5 1 5 0 
4 0 5 0 5 1 4 0 5 -1 5 0 4 0 5 0 
5 -1 4 -1 5 0 5 -1 4 -1 5 -1 5 -1 4 -2 
5 -1 5 -2 4 -1 5 -2 5 -2 4 -2 5 -2 5 -2 
4 -2 5 -2 5 -3 4 -3 5 -2 5 -3 4 -3 5 -3 
5 -4 4 -3 5 -3 5 -4 4 -4 5 -4 5 -4 4 -4 
5 -4 5 -5 4 -4 5 -5 5 -5 4 -5 5 -5 5 -5 
4 -6 5 -6 5 -5 4 -6 5 -7 5 -6 4 -6 5 -7 
5 -7 4 -7 5 -8 5 -7 4 -8 5 -8 5 -8 4 -8 
5 -9 5 -9 4 -9 5 -10 5 -9 4 -10 5 -11 5 -10 
4 -11 5 -11 5 -12 4 -12 5 -12 5 -12 4 -14 5 -13 
5 -14 4 -14 5 -15 5 -15 4 -16 5 -16 5 -17 4 -18 
5 -18 5 -19 4 -19 5 -21 5 -21 4 -22 5 -23 5 -23 
4 -25 5 -26 5 -28 4 -28 5 -30 5 -32 3 -22 2149 3365 200 MP stroke
gr

c11
DA
0 sg
2268 3652 mt 
(Radius \(mm\)) s
 336 2363 mt  -90 rotate
(Normal Stress \(kPa\)) s
90 rotate
 639 3407 mt 
( ) s
4553  325 mt 
( ) s
SO
1 sg
0 626 833 0 0 -626 3677 969 4 MP
PP
-833 0 0 626 833 0 0 -626 3677 969 5 MP stroke
4 w
DO
SO
6 w
0 sg
3677  343 mt 4510  343 L
3677  969 mt 4510  969 L
4510  969 mt 4510  343 L
3677  969 mt 3677  343 L
3677  969 mt 4510  969 L
3677  969 mt 3677  343 L
3677  343 mt 4510  343 L
3677  969 mt 4510  969 L
4510  969 mt 4510  343 L
3677  969 mt 3677  343 L
4138  477 mt 
( 0 ms) s
gs 3677 343 834 627 rc
c8
355 0 3747 435 2 MP stroke
gr

c8
0 sg
4138  625 mt 
(50 ms) s
gs 3677 343 834 627 rc
c9
355 0 3747 582 2 MP stroke
gr

c9
0 sg
4138  772 mt 
(67 ms) s
gs 3677 343 834 627 rc
c10
355 0 3747 729 2 MP stroke
gr

c10
0 sg
4138  920 mt 
(83 ms) s
gs 3677 343 834 627 rc
c11
355 0 3747 876 2 MP stroke
gr

c11

end %%Color Dict

eplot
%%EndObject

epage
end

showpage

%%Trailer
%%EOF
